+--------------------------------------------------------------------------------------------------------------------------------------------------------------------------------------------------------------------------------------------------+
; Legal Partition Candidates                                                                                                                                                                                                                       ;
+---------------------------------------------+-------+----------------+--------------+----------------+--------+-----------------+---------------+-----------------+-------+----------------+--------------+------------------+-------------------+
; Hierarchy                                   ; Input ; Constant Input ; Unused Input ; Floating Input ; Output ; Constant Output ; Unused Output ; Floating Output ; Bidir ; Constant Bidir ; Unused Bidir ; Input only Bidir ; Output only Bidir ;
+---------------------------------------------+-------+----------------+--------------+----------------+--------+-----------------+---------------+-----------------+-------+----------------+--------------+------------------+-------------------+
; control                                     ; 2     ; 0              ; 0            ; 0              ; 67     ; 0               ; 0             ; 0               ; 0     ; 0              ; 0            ; 0                ; 0                 ;
; vgapll_inst|altpll_component|auto_generated ; 2     ; 0              ; 0            ; 0              ; 5      ; 0               ; 0             ; 0               ; 0     ; 0              ; 0            ; 0                ; 0                 ;
; vgapll_inst                                 ; 1     ; 0              ; 0            ; 0              ; 1      ; 0               ; 0             ; 0               ; 0     ; 0              ; 0            ; 0                ; 0                 ;
; comb_ckt|coloring                           ; 12    ; 3              ; 0            ; 3              ; 12     ; 3               ; 3             ; 3               ; 0     ; 0              ; 0            ; 0                ; 0                 ;
; comb_ckt|bikiniBottom                       ; 20    ; 0              ; 10           ; 0              ; 1      ; 0               ; 0             ; 0               ; 0     ; 0              ; 0            ; 0                ; 0                 ;
; comb_ckt|theBlocks|row5|block8              ; 59    ; 11             ; 0            ; 11             ; 6      ; 11              ; 11            ; 11              ; 0     ; 0              ; 0            ; 0                ; 0                 ;
; comb_ckt|theBlocks|row5|block7              ; 59    ; 11             ; 0            ; 11             ; 6      ; 11              ; 11            ; 11              ; 0     ; 0              ; 0            ; 0                ; 0                 ;
; comb_ckt|theBlocks|row5|block6              ; 59    ; 11             ; 0            ; 11             ; 6      ; 11              ; 11            ; 11              ; 0     ; 0              ; 0            ; 0                ; 0                 ;
; comb_ckt|theBlocks|row5|block5              ; 59    ; 11             ; 0            ; 11             ; 6      ; 11              ; 11            ; 11              ; 0     ; 0              ; 0            ; 0                ; 0                 ;
; comb_ckt|theBlocks|row5|block4              ; 59    ; 11             ; 0            ; 11             ; 6      ; 11              ; 11            ; 11              ; 0     ; 0              ; 0            ; 0                ; 0                 ;
; comb_ckt|theBlocks|row5|block3              ; 59    ; 11             ; 0            ; 11             ; 6      ; 11              ; 11            ; 11              ; 0     ; 0              ; 0            ; 0                ; 0                 ;
; comb_ckt|theBlocks|row5|block2              ; 59    ; 11             ; 0            ; 11             ; 6      ; 11              ; 11            ; 11              ; 0     ; 0              ; 0            ; 0                ; 0                 ;
; comb_ckt|theBlocks|row5|block1              ; 59    ; 11             ; 0            ; 11             ; 6      ; 11              ; 11            ; 11              ; 0     ; 0              ; 0            ; 0                ; 0                 ;
; comb_ckt|theBlocks|row5                     ; 49    ; 9              ; 0            ; 9              ; 9      ; 9               ; 9             ; 9               ; 0     ; 0              ; 0            ; 0                ; 0                 ;
; comb_ckt|theBlocks|row4|block8              ; 59    ; 11             ; 0            ; 11             ; 6      ; 11              ; 11            ; 11              ; 0     ; 0              ; 0            ; 0                ; 0                 ;
; comb_ckt|theBlocks|row4|block7              ; 59    ; 11             ; 0            ; 11             ; 6      ; 11              ; 11            ; 11              ; 0     ; 0              ; 0            ; 0                ; 0                 ;
; comb_ckt|theBlocks|row4|block6              ; 59    ; 11             ; 0            ; 11             ; 6      ; 11              ; 11            ; 11              ; 0     ; 0              ; 0            ; 0                ; 0                 ;
; comb_ckt|theBlocks|row4|block5              ; 59    ; 11             ; 0            ; 11             ; 6      ; 11              ; 11            ; 11              ; 0     ; 0              ; 0            ; 0                ; 0                 ;
; comb_ckt|theBlocks|row4|block4              ; 59    ; 11             ; 0            ; 11             ; 6      ; 11              ; 11            ; 11              ; 0     ; 0              ; 0            ; 0                ; 0                 ;
; comb_ckt|theBlocks|row4|block3              ; 59    ; 11             ; 0            ; 11             ; 6      ; 11              ; 11            ; 11              ; 0     ; 0              ; 0            ; 0                ; 0                 ;
; comb_ckt|theBlocks|row4|block2              ; 59    ; 11             ; 0            ; 11             ; 6      ; 11              ; 11            ; 11              ; 0     ; 0              ; 0            ; 0                ; 0                 ;
; comb_ckt|theBlocks|row4|block1              ; 59    ; 11             ; 0            ; 11             ; 6      ; 11              ; 11            ; 11              ; 0     ; 0              ; 0            ; 0                ; 0                 ;
; comb_ckt|theBlocks|row4                     ; 49    ; 9              ; 0            ; 9              ; 9      ; 9               ; 9             ; 9               ; 0     ; 0              ; 0            ; 0                ; 0                 ;
; comb_ckt|theBlocks|row3|block8              ; 59    ; 11             ; 0            ; 11             ; 6      ; 11              ; 11            ; 11              ; 0     ; 0              ; 0            ; 0                ; 0                 ;
; comb_ckt|theBlocks|row3|block7              ; 59    ; 11             ; 0            ; 11             ; 6      ; 11              ; 11            ; 11              ; 0     ; 0              ; 0            ; 0                ; 0                 ;
; comb_ckt|theBlocks|row3|block6              ; 59    ; 11             ; 0            ; 11             ; 6      ; 11              ; 11            ; 11              ; 0     ; 0              ; 0            ; 0                ; 0                 ;
; comb_ckt|theBlocks|row3|block5              ; 59    ; 11             ; 0            ; 11             ; 6      ; 11              ; 11            ; 11              ; 0     ; 0              ; 0            ; 0                ; 0                 ;
; comb_ckt|theBlocks|row3|block4              ; 59    ; 11             ; 0            ; 11             ; 6      ; 11              ; 11            ; 11              ; 0     ; 0              ; 0            ; 0                ; 0                 ;
; comb_ckt|theBlocks|row3|block3              ; 59    ; 11             ; 0            ; 11             ; 6      ; 11              ; 11            ; 11              ; 0     ; 0              ; 0            ; 0                ; 0                 ;
; comb_ckt|theBlocks|row3|block2              ; 59    ; 11             ; 0            ; 11             ; 6      ; 11              ; 11            ; 11              ; 0     ; 0              ; 0            ; 0                ; 0                 ;
; comb_ckt|theBlocks|row3|block1              ; 59    ; 11             ; 0            ; 11             ; 6      ; 11              ; 11            ; 11              ; 0     ; 0              ; 0            ; 0                ; 0                 ;
; comb_ckt|theBlocks|row3                     ; 49    ; 9              ; 0            ; 9              ; 9      ; 9               ; 9             ; 9               ; 0     ; 0              ; 0            ; 0                ; 0                 ;
; comb_ckt|theBlocks|row2|block8              ; 59    ; 11             ; 0            ; 11             ; 6      ; 11              ; 11            ; 11              ; 0     ; 0              ; 0            ; 0                ; 0                 ;
; comb_ckt|theBlocks|row2|block7              ; 59    ; 11             ; 0            ; 11             ; 6      ; 11              ; 11            ; 11              ; 0     ; 0              ; 0            ; 0                ; 0                 ;
; comb_ckt|theBlocks|row2|block6              ; 59    ; 11             ; 0            ; 11             ; 6      ; 11              ; 11            ; 11              ; 0     ; 0              ; 0            ; 0                ; 0                 ;
; comb_ckt|theBlocks|row2|block5              ; 59    ; 11             ; 0            ; 11             ; 6      ; 11              ; 11            ; 11              ; 0     ; 0              ; 0            ; 0                ; 0                 ;
; comb_ckt|theBlocks|row2|block4              ; 59    ; 11             ; 0            ; 11             ; 6      ; 11              ; 11            ; 11              ; 0     ; 0              ; 0            ; 0                ; 0                 ;
; comb_ckt|theBlocks|row2|block3              ; 59    ; 11             ; 0            ; 11             ; 6      ; 11              ; 11            ; 11              ; 0     ; 0              ; 0            ; 0                ; 0                 ;
; comb_ckt|theBlocks|row2|block2              ; 59    ; 11             ; 0            ; 11             ; 6      ; 11              ; 11            ; 11              ; 0     ; 0              ; 0            ; 0                ; 0                 ;
; comb_ckt|theBlocks|row2|block1              ; 59    ; 11             ; 0            ; 11             ; 6      ; 11              ; 11            ; 11              ; 0     ; 0              ; 0            ; 0                ; 0                 ;
; comb_ckt|theBlocks|row2                     ; 49    ; 9              ; 0            ; 9              ; 9      ; 9               ; 9             ; 9               ; 0     ; 0              ; 0            ; 0                ; 0                 ;
; comb_ckt|theBlocks|row1|block8              ; 59    ; 11             ; 0            ; 11             ; 6      ; 11              ; 11            ; 11              ; 0     ; 0              ; 0            ; 0                ; 0                 ;
; comb_ckt|theBlocks|row1|block7              ; 59    ; 11             ; 0            ; 11             ; 6      ; 11              ; 11            ; 11              ; 0     ; 0              ; 0            ; 0                ; 0                 ;
; comb_ckt|theBlocks|row1|block6              ; 59    ; 11             ; 0            ; 11             ; 6      ; 11              ; 11            ; 11              ; 0     ; 0              ; 0            ; 0                ; 0                 ;
; comb_ckt|theBlocks|row1|block5              ; 59    ; 11             ; 0            ; 11             ; 6      ; 11              ; 11            ; 11              ; 0     ; 0              ; 0            ; 0                ; 0                 ;
; comb_ckt|theBlocks|row1|block4              ; 59    ; 11             ; 0            ; 11             ; 6      ; 11              ; 11            ; 11              ; 0     ; 0              ; 0            ; 0                ; 0                 ;
; comb_ckt|theBlocks|row1|block3              ; 59    ; 11             ; 0            ; 11             ; 6      ; 11              ; 11            ; 11              ; 0     ; 0              ; 0            ; 0                ; 0                 ;
; comb_ckt|theBlocks|row1|block2              ; 59    ; 11             ; 0            ; 11             ; 6      ; 11              ; 11            ; 11              ; 0     ; 0              ; 0            ; 0                ; 0                 ;
; comb_ckt|theBlocks|row1|block1              ; 59    ; 11             ; 0            ; 11             ; 6      ; 11              ; 11            ; 11              ; 0     ; 0              ; 0            ; 0                ; 0                 ;
; comb_ckt|theBlocks|row1                     ; 49    ; 9              ; 0            ; 9              ; 9      ; 9               ; 9             ; 9               ; 0     ; 0              ; 0            ; 0                ; 0                 ;
; comb_ckt|theBlocks                          ; 40    ; 0              ; 0            ; 0              ; 11     ; 0               ; 0             ; 0               ; 0     ; 0              ; 0            ; 0                ; 0                 ;
; comb_ckt|theBall|ballDraw                   ; 38    ; 0              ; 0            ; 0              ; 3      ; 0               ; 0             ; 0               ; 0     ; 0              ; 0            ; 0                ; 0                 ;
; comb_ckt|theBall|posBoi                     ; 10    ; 0              ; 0            ; 0              ; 20     ; 0               ; 0             ; 0               ; 0     ; 0              ; 0            ; 0                ; 0                 ;
; comb_ckt|theBall                            ; 29    ; 0              ; 0            ; 0              ; 23     ; 0               ; 0             ; 0               ; 0     ; 0              ; 0            ; 0                ; 0                 ;
; comb_ckt|thePaddle|mover                    ; 4     ; 0              ; 0            ; 0              ; 10     ; 0               ; 0             ; 0               ; 0     ; 0              ; 0            ; 0                ; 0                 ;
; comb_ckt|thePaddle|paddleDrawer             ; 29    ; 0              ; 0            ; 0              ; 3      ; 0               ; 0             ; 0               ; 0     ; 0              ; 0            ; 0                ; 0                 ;
; comb_ckt|thePaddle|collider                 ; 32    ; 0              ; 0            ; 0              ; 8      ; 0               ; 0             ; 0               ; 0     ; 0              ; 0            ; 0                ; 0                 ;
; comb_ckt|thePaddle                          ; 43    ; 0              ; 0            ; 0              ; 11     ; 0               ; 0             ; 0               ; 0     ; 0              ; 0            ; 0                ; 0                 ;
; comb_ckt                                    ; 32    ; 56             ; 9            ; 56             ; 70     ; 56              ; 56            ; 56              ; 0     ; 0              ; 0            ; 0                ; 0                 ;
+---------------------------------------------+-------+----------------+--------------+----------------+--------+-----------------+---------------+-----------------+-------+----------------+--------------+------------------+-------------------+
